{
    "KPlugin": {
        "Authors": [
            {
                "Email": "niccolo@venerandi.com",
                "Name": "Niccolo Venerandi",
                "Name[ar]": "Niccolo Venerandi",
                "Name[az]": "Niccolo Venerandi",
                "Name[ca@valencia]": "Niccolo Venerandi",
                "Name[ca]": "Niccolo Venerandi",
                "Name[de]": "Niccolo Venerandi",
                "Name[en_GB]": "Niccolo Venerandi",
                "Name[es]": "Niccolo Venerandi",
                "Name[eu]": "Niccolo Venerandi",
                "Name[fi]": "Niccolo Venerandi",
                "Name[fr]": "Niccolo Venerandi",
                "Name[hu]": "Niccolo Venerandi",
                "Name[ia]": "Niccolo Venerandi",
                "Name[id]": "Niccolo Venerandi",
                "Name[it]": "Niccolo Venerandi",
                "Name[ko]": "Niccolo Venerandi",
                "Name[lt]": "Niccolo Venerandi",
                "Name[nl]": "Niccolo Venerandi",
                "Name[nn]": "Niccolo Venerandi",
                "Name[pl]": "Niccolo Venerandi",
                "Name[pt]": "Niccolo Venerandi",
                "Name[pt_BR]": "Niccolo Venerandi",
                "Name[ro]": "Niccolo Venerandi",
                "Name[ru]": "Niccolo Venerandi",
                "Name[sk]": "Niccolo Venerandi",
                "Name[sl]": "Niccolo Venerandi",
                "Name[sv]": "Niccolo Venerandi",
                "Name[ta]": "நிக்கோலொ வெனெராண்டி",
                "Name[tr]": "Niccolo Veneradi",
                "Name[uk]": "Niccolo Venerandi",
                "Name[vi]": "Niccolo Venerandi",
                "Name[x-test]": "xxNiccolo Venerandixx",
                "Name[zh_CN]": "Niccolo Venerandi"
            }
        ],
        "Category": "Utilities",
        "Description": "The most advanced and customizable Notch a desktop has ever featured",
        "Icon": "daemon",
        "Id": "org.kde.knotch",
        "License": "GPLv2",
        "Name": "The KNotch",
        "ServiceTypes": [
            "Plasma/Applet"
        ],
        "Version": "0.1"
    },
    "X-Plasma-API": "declarativeappletscript",
    "X-Plasma-MainScript": "ui/main.qml"
}
